{
  "_embedded" : {
    "consultation_schedules" : [ {
      "start_period" : 1558552569588,
      "end_period" : 1558556169588,
      "_links" : {
        "self" : {
          "href" : "http://localhost:8080/consultation_schedule/1"
        },
        "consultationSchedule" : {
          "href" : "http://localhost:8080/consultation_schedule/1"
        },
        "veterinarian" : {
          "href" : "http://localhost:8080/consultation_schedule/1/veterinarian"
        },
        "client" : {
          "href" : "http://localhost:8080/consultation_schedule/1/client"
        }
      }
    }, {
      "start_period" : 1534064238335,
      "end_period" : 1534067838335,
      "_links" : {
        "self" : {
          "href" : "http://localhost:8080/consultation_schedule/2"
        },
        "consultationSchedule" : {
          "href" : "http://localhost:8080/consultation_schedule/2"
        },
        "veterinarian" : {
          "href" : "http://localhost:8080/consultation_schedule/2/veterinarian"
        },
        "client" : {
          "href" : "http://localhost:8080/consultation_schedule/2/client"
        }
      }
    }, {
      "start_period" : 1534131713395,
      "end_period" : 1534135313395,
      "_links" : {
        "self" : {
          "href" : "http://localhost:8080/consultation_schedule/3"
        },
        "consultationSchedule" : {
          "href" : "http://localhost:8080/consultation_schedule/3"
        },
        "veterinarian" : {
          "href" : "http://localhost:8080/consultation_schedule/3/veterinarian"
        },
        "client" : {
          "href" : "http://localhost:8080/consultation_schedule/3/client"
        }
      }
    }, {
      "start_period" : 1534293896753,
      "end_period" : 1534297496753,
      "_links" : {
        "self" : {
          "href" : "http://localhost:8080/consultation_schedule/4"
        },
        "consultationSchedule" : {
          "href" : "http://localhost:8080/consultation_schedule/4"
        },
        "veterinarian" : {
          "href" : "http://localhost:8080/consultation_schedule/4/veterinarian"
        },
        "client" : {
          "href" : "http://localhost:8080/consultation_schedule/4/client"
        }
      }
    }, {
      "start_period" : 1534428394749,
      "end_period" : 1534431994749,
      "_links" : {
        "self" : {
          "href" : "http://localhost:8080/consultation_schedule/5"
        },
        "consultationSchedule" : {
          "href" : "http://localhost:8080/consultation_schedule/5"
        },
        "veterinarian" : {
          "href" : "http://localhost:8080/consultation_schedule/5/veterinarian"
        },
        "client" : {
          "href" : "http://localhost:8080/consultation_schedule/5/client"
        }
      }
    }, {
      "start_period" : 1534472501950,
      "end_period" : 1534476101950,
      "_links" : {
        "self" : {
          "href" : "http://localhost:8080/consultation_schedule/6"
        },
        "consultationSchedule" : {
          "href" : "http://localhost:8080/consultation_schedule/6"
        },
        "veterinarian" : {
          "href" : "http://localhost:8080/consultation_schedule/6/veterinarian"
        },
        "client" : {
          "href" : "http://localhost:8080/consultation_schedule/6/client"
        }
      }
    }, {
      "start_period" : 1534979084342,
      "end_period" : 1534982684342,
      "_links" : {
        "self" : {
          "href" : "http://localhost:8080/consultation_schedule/7"
        },
        "consultationSchedule" : {
          "href" : "http://localhost:8080/consultation_schedule/7"
        },
        "veterinarian" : {
          "href" : "http://localhost:8080/consultation_schedule/7/veterinarian"
        },
        "client" : {
          "href" : "http://localhost:8080/consultation_schedule/7/client"
        }
      }
    }, {
      "start_period" : 1535054601436,
      "end_period" : 1535058201436,
      "_links" : {
        "self" : {
          "href" : "http://localhost:8080/consultation_schedule/8"
        },
        "consultationSchedule" : {
          "href" : "http://localhost:8080/consultation_schedule/8"
        },
        "veterinarian" : {
          "href" : "http://localhost:8080/consultation_schedule/8/veterinarian"
        },
        "client" : {
          "href" : "http://localhost:8080/consultation_schedule/8/client"
        }
      }
    }, {
      "start_period" : 1535255813951,
      "end_period" : 1535259413951,
      "_links" : {
        "self" : {
          "href" : "http://localhost:8080/consultation_schedule/9"
        },
        "consultationSchedule" : {
          "href" : "http://localhost:8080/consultation_schedule/9"
        },
        "veterinarian" : {
          "href" : "http://localhost:8080/consultation_schedule/9/veterinarian"
        },
        "client" : {
          "href" : "http://localhost:8080/consultation_schedule/9/client"
        }
      }
    }, {
      "start_period" : 1535267959789,
      "end_period" : 1535271559789,
      "_links" : {
        "self" : {
          "href" : "http://localhost:8080/consultation_schedule/10"
        },
        "consultationSchedule" : {
          "href" : "http://localhost:8080/consultation_schedule/10"
        },
        "veterinarian" : {
          "href" : "http://localhost:8080/consultation_schedule/10/veterinarian"
        },
        "client" : {
          "href" : "http://localhost:8080/consultation_schedule/10/client"
        }
      }
    }, {
      "start_period" : 1535834090035,
      "end_period" : 1535837690035,
      "_links" : {
        "self" : {
          "href" : "http://localhost:8080/consultation_schedule/11"
        },
        "consultationSchedule" : {
          "href" : "http://localhost:8080/consultation_schedule/11"
        },
        "veterinarian" : {
          "href" : "http://localhost:8080/consultation_schedule/11/veterinarian"
        },
        "client" : {
          "href" : "http://localhost:8080/consultation_schedule/11/client"
        }
      }
    }, {
      "start_period" : 1535921419044,
      "end_period" : 1535925019044,
      "_links" : {
        "self" : {
          "href" : "http://localhost:8080/consultation_schedule/12"
        },
        "consultationSchedule" : {
          "href" : "http://localhost:8080/consultation_schedule/12"
        },
        "veterinarian" : {
          "href" : "http://localhost:8080/consultation_schedule/12/veterinarian"
        },
        "client" : {
          "href" : "http://localhost:8080/consultation_schedule/12/client"
        }
      }
    }, {
      "start_period" : 1536055534029,
      "end_period" : 1536059134029,
      "_links" : {
        "self" : {
          "href" : "http://localhost:8080/consultation_schedule/13"
        },
        "consultationSchedule" : {
          "href" : "http://localhost:8080/consultation_schedule/13"
        },
        "veterinarian" : {
          "href" : "http://localhost:8080/consultation_schedule/13/veterinarian"
        },
        "client" : {
          "href" : "http://localhost:8080/consultation_schedule/13/client"
        }
      }
    }, {
      "start_period" : 1536056056465,
      "end_period" : 1536059656465,
      "_links" : {
        "self" : {
          "href" : "http://localhost:8080/consultation_schedule/14"
        },
        "consultationSchedule" : {
          "href" : "http://localhost:8080/consultation_schedule/14"
        },
        "veterinarian" : {
          "href" : "http://localhost:8080/consultation_schedule/14/veterinarian"
        },
        "client" : {
          "href" : "http://localhost:8080/consultation_schedule/14/client"
        }
      }
    }, {
      "start_period" : 1536160341001,
      "end_period" : 1536163941001,
      "_links" : {
        "self" : {
          "href" : "http://localhost:8080/consultation_schedule/15"
        },
        "consultationSchedule" : {
          "href" : "http://localhost:8080/consultation_schedule/15"
        },
        "veterinarian" : {
          "href" : "http://localhost:8080/consultation_schedule/15/veterinarian"
        },
        "client" : {
          "href" : "http://localhost:8080/consultation_schedule/15/client"
        }
      }
    }, {
      "start_period" : 1536618351953,
      "end_period" : 1536621951953,
      "_links" : {
        "self" : {
          "href" : "http://localhost:8080/consultation_schedule/16"
        },
        "consultationSchedule" : {
          "href" : "http://localhost:8080/consultation_schedule/16"
        },
        "veterinarian" : {
          "href" : "http://localhost:8080/consultation_schedule/16/veterinarian"
        },
        "client" : {
          "href" : "http://localhost:8080/consultation_schedule/16/client"
        }
      }
    }, {
      "start_period" : 1536708807574,
      "end_period" : 1536712407574,
      "_links" : {
        "self" : {
          "href" : "http://localhost:8080/consultation_schedule/17"
        },
        "consultationSchedule" : {
          "href" : "http://localhost:8080/consultation_schedule/17"
        },
        "veterinarian" : {
          "href" : "http://localhost:8080/consultation_schedule/17/veterinarian"
        },
        "client" : {
          "href" : "http://localhost:8080/consultation_schedule/17/client"
        }
      }
    }, {
      "start_period" : 1536869522948,
      "end_period" : 1536873122948,
      "_links" : {
        "self" : {
          "href" : "http://localhost:8080/consultation_schedule/18"
        },
        "consultationSchedule" : {
          "href" : "http://localhost:8080/consultation_schedule/18"
        },
        "veterinarian" : {
          "href" : "http://localhost:8080/consultation_schedule/18/veterinarian"
        },
        "client" : {
          "href" : "http://localhost:8080/consultation_schedule/18/client"
        }
      }
    }, {
      "start_period" : 1537157397717,
      "end_period" : 1537160997717,
      "_links" : {
        "self" : {
          "href" : "http://localhost:8080/consultation_schedule/19"
        },
        "consultationSchedule" : {
          "href" : "http://localhost:8080/consultation_schedule/19"
        },
        "veterinarian" : {
          "href" : "http://localhost:8080/consultation_schedule/19/veterinarian"
        },
        "client" : {
          "href" : "http://localhost:8080/consultation_schedule/19/client"
        }
      }
    }, {
      "start_period" : 1537345271364,
      "end_period" : 1537348871364,
      "_links" : {
        "self" : {
          "href" : "http://localhost:8080/consultation_schedule/20"
        },
        "consultationSchedule" : {
          "href" : "http://localhost:8080/consultation_schedule/20"
        },
        "veterinarian" : {
          "href" : "http://localhost:8080/consultation_schedule/20/veterinarian"
        },
        "client" : {
          "href" : "http://localhost:8080/consultation_schedule/20/client"
        }
      }
    } ]
  },
  "_links" : {
    "first" : {
      "href" : "http://localhost:8080/consultation_schedule?page=0&size=20"
    },
    "self" : {
      "href" : "http://localhost:8080/consultation_schedule{?page,size,sort}",
      "templated" : true
    },
    "next" : {
      "href" : "http://localhost:8080/consultation_schedule?page=1&size=20"
    },
    "last" : {
      "href" : "http://localhost:8080/consultation_schedule?page=24&size=20"
    },
    "profile" : {
      "href" : "http://localhost:8080/profile/consultation_schedule"
    }
  },
  "page" : {
    "size" : 20,
    "totalElements" : 500,
    "totalPages" : 25,
    "number" : 0
  }
}