{
  "_embedded" : {
    "consultations" : [ {
      "caseHistory" : "Multi-channelled tertiary middleware",
      "diagnosis" : "Devolved heuristic local area network",
      "treatment" : "Team-oriented solution-oriented circuit",
      "observations" : null,
      "date" : "2017-11-05T20:58:48.000+0000",
      "weight" : 55.64,
      "_links" : {
        "self" : {
          "href" : "http://localhost:8080/consultation/1"
        },
        "consultation" : {
          "href" : "http://localhost:8080/consultation/1"
        },
        "pet" : {
          "href" : "http://localhost:8080/consultation/1/pet"
        },
        "veterinarian" : {
          "href" : "http://localhost:8080/consultation/1/veterinarian"
        }
      }
    }, {
      "caseHistory" : "Adaptive attitude-oriented throughput",
      "diagnosis" : "Devolved impactful infrastructure",
      "treatment" : "Sharable empowering website",
      "observations" : null,
      "date" : "2018-02-24T04:36:46.000+0000",
      "weight" : 45.92,
      "_links" : {
        "self" : {
          "href" : "http://localhost:8080/consultation/2"
        },
        "consultation" : {
          "href" : "http://localhost:8080/consultation/2"
        },
        "pet" : {
          "href" : "http://localhost:8080/consultation/2/pet"
        },
        "veterinarian" : {
          "href" : "http://localhost:8080/consultation/2/veterinarian"
        }
      }
    }, {
      "caseHistory" : "Adaptive cohesive concept",
      "diagnosis" : "Fundamental client-driven core",
      "treatment" : "Synchronised analyzing project",
      "observations" : null,
      "date" : "2017-09-02T21:11:22.000+0000",
      "weight" : 49.68,
      "_links" : {
        "self" : {
          "href" : "http://localhost:8080/consultation/3"
        },
        "consultation" : {
          "href" : "http://localhost:8080/consultation/3"
        },
        "pet" : {
          "href" : "http://localhost:8080/consultation/3/pet"
        },
        "veterinarian" : {
          "href" : "http://localhost:8080/consultation/3/veterinarian"
        }
      }
    }, {
      "caseHistory" : "Adaptive dedicated time-frame",
      "diagnosis" : "Persistent client-driven structure",
      "treatment" : "Multi-lateral actuating infrastructure",
      "observations" : null,
      "date" : "2017-10-11T02:04:32.000+0000",
      "weight" : 61.36,
      "_links" : {
        "self" : {
          "href" : "http://localhost:8080/consultation/4"
        },
        "consultation" : {
          "href" : "http://localhost:8080/consultation/4"
        },
        "pet" : {
          "href" : "http://localhost:8080/consultation/4/pet"
        },
        "veterinarian" : {
          "href" : "http://localhost:8080/consultation/4/veterinarian"
        }
      }
    }, {
      "caseHistory" : "Adaptive empowering implementation",
      "diagnosis" : "Ameliorated empowering orchestration",
      "treatment" : "Distributed local knowledge user",
      "observations" : null,
      "date" : "2017-11-10T14:21:17.000+0000",
      "weight" : 63.35,
      "_links" : {
        "self" : {
          "href" : "http://localhost:8080/consultation/5"
        },
        "consultation" : {
          "href" : "http://localhost:8080/consultation/5"
        },
        "pet" : {
          "href" : "http://localhost:8080/consultation/5/pet"
        },
        "veterinarian" : {
          "href" : "http://localhost:8080/consultation/5/veterinarian"
        }
      }
    }, {
      "caseHistory" : "Adaptive empowering model",
      "diagnosis" : "Open-source demand-driven instruction set",
      "treatment" : "User-centric global customer loyalty",
      "observations" : null,
      "date" : "2017-09-07T17:23:08.000+0000",
      "weight" : 77.41,
      "_links" : {
        "self" : {
          "href" : "http://localhost:8080/consultation/6"
        },
        "consultation" : {
          "href" : "http://localhost:8080/consultation/6"
        },
        "pet" : {
          "href" : "http://localhost:8080/consultation/6/pet"
        },
        "veterinarian" : {
          "href" : "http://localhost:8080/consultation/6/veterinarian"
        }
      }
    }, {
      "caseHistory" : "Adaptive explicit data-warehouse",
      "diagnosis" : "Upgradable heuristic open architecture",
      "treatment" : "Customer-focused executive architecture",
      "observations" : null,
      "date" : "2017-11-25T22:58:25.000+0000",
      "weight" : 61.31,
      "_links" : {
        "self" : {
          "href" : "http://localhost:8080/consultation/7"
        },
        "consultation" : {
          "href" : "http://localhost:8080/consultation/7"
        },
        "pet" : {
          "href" : "http://localhost:8080/consultation/7/pet"
        },
        "veterinarian" : {
          "href" : "http://localhost:8080/consultation/7/veterinarian"
        }
      }
    }, {
      "caseHistory" : "Adaptive holistic secured line",
      "diagnosis" : "Horizontal mission-critical firmware",
      "treatment" : "Polarised even-keeled concept",
      "observations" : null,
      "date" : "2018-03-12T15:49:32.000+0000",
      "weight" : 68.77,
      "_links" : {
        "self" : {
          "href" : "http://localhost:8080/consultation/8"
        },
        "consultation" : {
          "href" : "http://localhost:8080/consultation/8"
        },
        "pet" : {
          "href" : "http://localhost:8080/consultation/8/pet"
        },
        "veterinarian" : {
          "href" : "http://localhost:8080/consultation/8/veterinarian"
        }
      }
    }, {
      "caseHistory" : "Adaptive responsive moratorium",
      "diagnosis" : "Right-sized full-range Graphical User Interface",
      "treatment" : "Team-oriented optimal functionalities",
      "observations" : null,
      "date" : "2018-02-09T00:28:42.000+0000",
      "weight" : 65.92,
      "_links" : {
        "self" : {
          "href" : "http://localhost:8080/consultation/9"
        },
        "consultation" : {
          "href" : "http://localhost:8080/consultation/9"
        },
        "pet" : {
          "href" : "http://localhost:8080/consultation/9/pet"
        },
        "veterinarian" : {
          "href" : "http://localhost:8080/consultation/9/veterinarian"
        }
      }
    }, {
      "caseHistory" : "Adaptive static knowledge user",
      "diagnosis" : "Right-sized 4th generation hardware",
      "treatment" : "Monitored cohesive open system",
      "observations" : null,
      "date" : "2018-07-14T14:10:37.000+0000",
      "weight" : 44.2,
      "_links" : {
        "self" : {
          "href" : "http://localhost:8080/consultation/10"
        },
        "consultation" : {
          "href" : "http://localhost:8080/consultation/10"
        },
        "pet" : {
          "href" : "http://localhost:8080/consultation/10/pet"
        },
        "veterinarian" : {
          "href" : "http://localhost:8080/consultation/10/veterinarian"
        }
      }
    }, {
      "caseHistory" : "Advanced 24 hour pricing structure",
      "diagnosis" : "Universal discrete functionalities",
      "treatment" : "Ameliorated asymmetric parallelism",
      "observations" : null,
      "date" : "2018-06-20T01:21:54.000+0000",
      "weight" : 77.84,
      "_links" : {
        "self" : {
          "href" : "http://localhost:8080/consultation/11"
        },
        "consultation" : {
          "href" : "http://localhost:8080/consultation/11"
        },
        "pet" : {
          "href" : "http://localhost:8080/consultation/11/pet"
        },
        "veterinarian" : {
          "href" : "http://localhost:8080/consultation/11/veterinarian"
        }
      }
    }, {
      "caseHistory" : "Advanced 4th generation access",
      "diagnosis" : "Virtual radical database",
      "treatment" : "Triple-buffered bandwidth-monitored product",
      "observations" : null,
      "date" : "2018-05-03T18:28:34.000+0000",
      "weight" : 42.38,
      "_links" : {
        "self" : {
          "href" : "http://localhost:8080/consultation/12"
        },
        "consultation" : {
          "href" : "http://localhost:8080/consultation/12"
        },
        "pet" : {
          "href" : "http://localhost:8080/consultation/12/pet"
        },
        "veterinarian" : {
          "href" : "http://localhost:8080/consultation/12/veterinarian"
        }
      }
    }, {
      "caseHistory" : "Advanced dedicated product",
      "diagnosis" : "Streamlined holistic encoding",
      "treatment" : "Monitored attitude-oriented analyzer",
      "observations" : null,
      "date" : "2017-11-13T10:16:16.000+0000",
      "weight" : 56.05,
      "_links" : {
        "self" : {
          "href" : "http://localhost:8080/consultation/13"
        },
        "consultation" : {
          "href" : "http://localhost:8080/consultation/13"
        },
        "pet" : {
          "href" : "http://localhost:8080/consultation/13/pet"
        },
        "veterinarian" : {
          "href" : "http://localhost:8080/consultation/13/veterinarian"
        }
      }
    }, {
      "caseHistory" : "Advanced encompassing benchmark",
      "diagnosis" : "Pre-emptive responsive portal",
      "treatment" : "Customizable homogeneous intranet",
      "observations" : null,
      "date" : "2018-04-19T01:25:10.000+0000",
      "weight" : 64.28,
      "_links" : {
        "self" : {
          "href" : "http://localhost:8080/consultation/14"
        },
        "consultation" : {
          "href" : "http://localhost:8080/consultation/14"
        },
        "pet" : {
          "href" : "http://localhost:8080/consultation/14/pet"
        },
        "veterinarian" : {
          "href" : "http://localhost:8080/consultation/14/veterinarian"
        }
      }
    }, {
      "caseHistory" : "Advanced fault-tolerant pricing structure",
      "diagnosis" : "Customizable clear-thinking access",
      "treatment" : "Expanded 24/7 array",
      "observations" : null,
      "date" : "2017-10-02T21:38:42.000+0000",
      "weight" : 70.87,
      "_links" : {
        "self" : {
          "href" : "http://localhost:8080/consultation/15"
        },
        "consultation" : {
          "href" : "http://localhost:8080/consultation/15"
        },
        "pet" : {
          "href" : "http://localhost:8080/consultation/15/pet"
        },
        "veterinarian" : {
          "href" : "http://localhost:8080/consultation/15/veterinarian"
        }
      }
    }, {
      "caseHistory" : "Advanced full-range definition",
      "diagnosis" : "Right-sized cohesive hardware",
      "treatment" : "Open-architected secondary paradigm",
      "observations" : null,
      "date" : "2018-08-03T16:47:33.000+0000",
      "weight" : 55.17,
      "_links" : {
        "self" : {
          "href" : "http://localhost:8080/consultation/16"
        },
        "consultation" : {
          "href" : "http://localhost:8080/consultation/16"
        },
        "pet" : {
          "href" : "http://localhost:8080/consultation/16/pet"
        },
        "veterinarian" : {
          "href" : "http://localhost:8080/consultation/16/veterinarian"
        }
      }
    }, {
      "caseHistory" : "Advanced logistical adapter",
      "diagnosis" : "Team-oriented homogeneous budgetary management",
      "treatment" : "Synergistic bifurcated definition",
      "observations" : null,
      "date" : "2018-05-17T06:54:02.000+0000",
      "weight" : 53.2,
      "_links" : {
        "self" : {
          "href" : "http://localhost:8080/consultation/17"
        },
        "consultation" : {
          "href" : "http://localhost:8080/consultation/17"
        },
        "pet" : {
          "href" : "http://localhost:8080/consultation/17/pet"
        },
        "veterinarian" : {
          "href" : "http://localhost:8080/consultation/17/veterinarian"
        }
      }
    }, {
      "caseHistory" : "Advanced modular function",
      "diagnosis" : "Adaptive incremental system engine",
      "treatment" : "Re-contextualized upward-trending local area network",
      "observations" : null,
      "date" : "2018-07-23T02:40:07.000+0000",
      "weight" : 73.55,
      "_links" : {
        "self" : {
          "href" : "http://localhost:8080/consultation/18"
        },
        "consultation" : {
          "href" : "http://localhost:8080/consultation/18"
        },
        "pet" : {
          "href" : "http://localhost:8080/consultation/18/pet"
        },
        "veterinarian" : {
          "href" : "http://localhost:8080/consultation/18/veterinarian"
        }
      }
    }, {
      "caseHistory" : "Advanced non-volatile project",
      "diagnosis" : "Optimized object-oriented flexibility",
      "treatment" : "Implemented 4th generation time-frame",
      "observations" : null,
      "date" : "2018-03-29T07:25:42.000+0000",
      "weight" : 72.0,
      "_links" : {
        "self" : {
          "href" : "http://localhost:8080/consultation/19"
        },
        "consultation" : {
          "href" : "http://localhost:8080/consultation/19"
        },
        "pet" : {
          "href" : "http://localhost:8080/consultation/19/pet"
        },
        "veterinarian" : {
          "href" : "http://localhost:8080/consultation/19/veterinarian"
        }
      }
    }, {
      "caseHistory" : "Advanced zero tolerance model",
      "diagnosis" : "Team-oriented optimal definition",
      "treatment" : "Function-based impactful infrastructure",
      "observations" : null,
      "date" : "2017-11-03T17:57:12.000+0000",
      "weight" : 39.31,
      "_links" : {
        "self" : {
          "href" : "http://localhost:8080/consultation/20"
        },
        "consultation" : {
          "href" : "http://localhost:8080/consultation/20"
        },
        "pet" : {
          "href" : "http://localhost:8080/consultation/20/pet"
        },
        "veterinarian" : {
          "href" : "http://localhost:8080/consultation/20/veterinarian"
        }
      }
    } ]
  },
  "_links" : {
    "first" : {
      "href" : "http://localhost:8080/consultation?page=0&size=20"
    },
    "self" : {
      "href" : "http://localhost:8080/consultation{?page,size,sort}",
      "templated" : true
    },
    "next" : {
      "href" : "http://localhost:8080/consultation?page=1&size=20"
    },
    "last" : {
      "href" : "http://localhost:8080/consultation?page=39&size=20"
    },
    "profile" : {
      "href" : "http://localhost:8080/profile/consultation"
    },
    "search" : {
      "href" : "http://localhost:8080/consultation/search"
    }
  },
  "page" : {
    "size" : 20,
    "totalElements" : 800,
    "totalPages" : 40,
    "number" : 0
  }
}