{
  "_embedded" : {
    "clients" : [ {
      "familyName" : "Lopes",
      "givenName" : "John",
      "email" : "lariachi@gmail.com",
      "telephone" : "+351914182534",
      "nif" : 123456789,
      "address" : null,
      "postalCode" : "241",
      "other" : "124",
      "_links" : {
        "self" : {
          "href" : "http://localhost:8080/client/2"
        },
        "client" : {
          "href" : "http://localhost:8080/client/2"
        },
        "consultationSchedules" : {
          "href" : "http://localhost:8080/client/2/consultationSchedules"
        },
        "pets" : {
          "href" : "http://localhost:8080/client/2/pets"
        },
        "treatmentSchedules" : {
          "href" : "http://localhost:8080/client/2/treatmentSchedules"
        }
      }
    }, {
      "familyName" : "Bails",
      "givenName" : "Andrej",
      "email" : "abails89@bbb.org",
      "telephone" : "314-206-7994",
      "nif" : 747501024,
      "address" : "3 Amoth Circle",
      "postalCode" : null,
      "other" : "xjjBMuwvPxqtTu5KWbyMfiSLACinl9vCRa6fQTa5Zt8wi0t1qQ5jF2F ABuU136i6vAhfLL5n4gZyUqh",
      "_links" : {
        "self" : {
          "href" : "http://localhost:8080/client/3"
        },
        "client" : {
          "href" : "http://localhost:8080/client/3"
        },
        "consultationSchedules" : {
          "href" : "http://localhost:8080/client/3/consultationSchedules"
        },
        "pets" : {
          "href" : "http://localhost:8080/client/3/pets"
        },
        "treatmentSchedules" : {
          "href" : "http://localhost:8080/client/3/treatmentSchedules"
        }
      }
    }, {
      "familyName" : "Baldinotti",
      "givenName" : "Avis",
      "email" : "abaldinottib@harvard.edu",
      "telephone" : "443-581-8506",
      "nif" : 802744965,
      "address" : "76 Grasskamp Terrace",
      "postalCode" : null,
      "other" : "zfUV8IItmbqxClgRrYWTqkqbWu5mUQbZOKPrSqXIdNlMRDA6WHPsX1X KnIYFBKPLC1dGP58rL41Djfy",
      "_links" : {
        "self" : {
          "href" : "http://localhost:8080/client/4"
        },
        "client" : {
          "href" : "http://localhost:8080/client/4"
        },
        "consultationSchedules" : {
          "href" : "http://localhost:8080/client/4/consultationSchedules"
        },
        "pets" : {
          "href" : "http://localhost:8080/client/4/pets"
        },
        "treatmentSchedules" : {
          "href" : "http://localhost:8080/client/4/treatmentSchedules"
        }
      }
    }, {
      "familyName" : "Bardell",
      "givenName" : "Ade",
      "email" : "abardelldv@google.it",
      "telephone" : "597-466-5629",
      "nif" : 268533324,
      "address" : "07 Mesta Trail",
      "postalCode" : null,
      "other" : "s4ndzjcqtc1b4OCXRqDDWttcNGW9yluSkm4pfq1DAs8HjNLiA4CKoZd faHwAi1h80icHIUpvNaXCKRw",
      "_links" : {
        "self" : {
          "href" : "http://localhost:8080/client/5"
        },
        "client" : {
          "href" : "http://localhost:8080/client/5"
        },
        "consultationSchedules" : {
          "href" : "http://localhost:8080/client/5/consultationSchedules"
        },
        "pets" : {
          "href" : "http://localhost:8080/client/5/pets"
        },
        "treatmentSchedules" : {
          "href" : "http://localhost:8080/client/5/treatmentSchedules"
        }
      }
    }, {
      "familyName" : "Barnewall",
      "givenName" : "Abdul",
      "email" : "abarnewalll4@mac.com",
      "telephone" : "744-471-5830",
      "nif" : 253453334,
      "address" : "5799 Bashford Trail",
      "postalCode" : "6529",
      "other" : "QacNAUqZZmLrhToww9f0ljDtXIVN7n6ZGZ7bVoP1qQGh9HDy17NXvFn aIPamkGsaXamgZhcAHNt0byV",
      "_links" : {
        "self" : {
          "href" : "http://localhost:8080/client/6"
        },
        "client" : {
          "href" : "http://localhost:8080/client/6"
        },
        "consultationSchedules" : {
          "href" : "http://localhost:8080/client/6/consultationSchedules"
        },
        "pets" : {
          "href" : "http://localhost:8080/client/6/pets"
        },
        "treatmentSchedules" : {
          "href" : "http://localhost:8080/client/6/treatmentSchedules"
        }
      }
    }, {
      "familyName" : "Barock",
      "givenName" : "Alicea",
      "email" : "abarocka3@hexun.com",
      "telephone" : "923-136-5622",
      "nif" : 160943416,
      "address" : "2148 Walton Point",
      "postalCode" : "592 14",
      "other" : "660rBDk7K7hazCcfyrsTOOnNSqhf3x8rFpw3MDlLjlBi1QuLKQ33Sc5 mNcCyQtUlRgG1H1BMdeeTj7K",
      "_links" : {
        "self" : {
          "href" : "http://localhost:8080/client/7"
        },
        "client" : {
          "href" : "http://localhost:8080/client/7"
        },
        "consultationSchedules" : {
          "href" : "http://localhost:8080/client/7/consultationSchedules"
        },
        "pets" : {
          "href" : "http://localhost:8080/client/7/pets"
        },
        "treatmentSchedules" : {
          "href" : "http://localhost:8080/client/7/treatmentSchedules"
        }
      }
    }, {
      "familyName" : "Beasleigh",
      "givenName" : "Avie",
      "email" : "abeasleigh48@imageshack.us",
      "telephone" : "356-867-1462",
      "nif" : 721416594,
      "address" : "094 Roxbury Alley",
      "postalCode" : "29950",
      "other" : "DRrpAr3Yl0krvgyRVE5iwVqw32zwycEisQLlbSX7qna9hPQrsBDGFnY x2lAx80zzMjkGTxBcLxEeZXH",
      "_links" : {
        "self" : {
          "href" : "http://localhost:8080/client/8"
        },
        "client" : {
          "href" : "http://localhost:8080/client/8"
        },
        "consultationSchedules" : {
          "href" : "http://localhost:8080/client/8/consultationSchedules"
        },
        "pets" : {
          "href" : "http://localhost:8080/client/8/pets"
        },
        "treatmentSchedules" : {
          "href" : "http://localhost:8080/client/8/treatmentSchedules"
        }
      }
    }, {
      "familyName" : "Bennion",
      "givenName" : "Archambault",
      "email" : "abennion1n@bbb.org",
      "telephone" : "103-428-2894",
      "nif" : 498260595,
      "address" : "316 Stone Corner Park",
      "postalCode" : "8134",
      "other" : "pqvY0pG0vcFnDbYtxkSLDLQOSGJjmagra37WnQhvTCG3dZQQMClTNv9 gn4t6u21DGOdfB1Pgx3UFDg7",
      "_links" : {
        "self" : {
          "href" : "http://localhost:8080/client/9"
        },
        "client" : {
          "href" : "http://localhost:8080/client/9"
        },
        "consultationSchedules" : {
          "href" : "http://localhost:8080/client/9/consultationSchedules"
        },
        "pets" : {
          "href" : "http://localhost:8080/client/9/pets"
        },
        "treatmentSchedules" : {
          "href" : "http://localhost:8080/client/9/treatmentSchedules"
        }
      }
    }, {
      "familyName" : "Blasl",
      "givenName" : "Andeee",
      "email" : "ablasle4@wsj.com",
      "telephone" : "928-944-8664",
      "nif" : 618701314,
      "address" : "8 Continental Center",
      "postalCode" : null,
      "other" : "nGznNIF3woasXSYozH7MC52XOUmKuoVIY9RfUuF89mLcb6O3YWc26FX 3YRB6xPsbvMByWa0BBRYR1bv",
      "_links" : {
        "self" : {
          "href" : "http://localhost:8080/client/10"
        },
        "client" : {
          "href" : "http://localhost:8080/client/10"
        },
        "consultationSchedules" : {
          "href" : "http://localhost:8080/client/10/consultationSchedules"
        },
        "pets" : {
          "href" : "http://localhost:8080/client/10/pets"
        },
        "treatmentSchedules" : {
          "href" : "http://localhost:8080/client/10/treatmentSchedules"
        }
      }
    }, {
      "familyName" : "Bool",
      "givenName" : "Anderea",
      "email" : "abool6l@house.gov",
      "telephone" : "589-721-3340",
      "nif" : 733479288,
      "address" : "84 Havey Hill",
      "postalCode" : "3105-325",
      "other" : "JS0P1dtyvJ4MEW42GZHmQu35uKv56gl50SgY300Y06SjpGWzeVhKCWB Nxi1vVv9vMRRw93C68ZHdztC",
      "_links" : {
        "self" : {
          "href" : "http://localhost:8080/client/11"
        },
        "client" : {
          "href" : "http://localhost:8080/client/11"
        },
        "consultationSchedules" : {
          "href" : "http://localhost:8080/client/11/consultationSchedules"
        },
        "pets" : {
          "href" : "http://localhost:8080/client/11/pets"
        },
        "treatmentSchedules" : {
          "href" : "http://localhost:8080/client/11/treatmentSchedules"
        }
      }
    }, {
      "familyName" : "Bownass",
      "givenName" : "Adolpho",
      "email" : "abownassir@hhs.gov",
      "telephone" : "471-357-3103",
      "nif" : 625863761,
      "address" : "2 Nova Circle",
      "postalCode" : null,
      "other" : "9uX6fCsGTkyOAt8skd8g7uhUb3wunvrxpzxpvbmP8tBmMUn6tXp43hF uuGUOFgJUSzXIBkwzzDQa4Ax",
      "_links" : {
        "self" : {
          "href" : "http://localhost:8080/client/12"
        },
        "client" : {
          "href" : "http://localhost:8080/client/12"
        },
        "consultationSchedules" : {
          "href" : "http://localhost:8080/client/12/consultationSchedules"
        },
        "pets" : {
          "href" : "http://localhost:8080/client/12/pets"
        },
        "treatmentSchedules" : {
          "href" : "http://localhost:8080/client/12/treatmentSchedules"
        }
      }
    }, {
      "familyName" : "Bradder",
      "givenName" : "Ame",
      "email" : "abradder9x@umich.edu",
      "telephone" : "387-966-9049",
      "nif" : 948108237,
      "address" : "430 Bellgrove Way",
      "postalCode" : null,
      "other" : "2gAzjqpo4JqqB1EqVVUrBoFbIWrwvq0qTe4xKtAB6JGTWcMoFkjlgh3 orE7woqggfZrRfyjqLOQmIec",
      "_links" : {
        "self" : {
          "href" : "http://localhost:8080/client/13"
        },
        "client" : {
          "href" : "http://localhost:8080/client/13"
        },
        "consultationSchedules" : {
          "href" : "http://localhost:8080/client/13/consultationSchedules"
        },
        "pets" : {
          "href" : "http://localhost:8080/client/13/pets"
        },
        "treatmentSchedules" : {
          "href" : "http://localhost:8080/client/13/treatmentSchedules"
        }
      }
    }, {
      "familyName" : "Brassill",
      "givenName" : "Annmaria",
      "email" : "abrassillbv@ucsd.edu",
      "telephone" : "191-194-7987",
      "nif" : 482038173,
      "address" : "1 Meadow Ridge Road",
      "postalCode" : "702 16",
      "other" : "VZauMz7GokeHOXC98R7l7zWnJCoUwGaja72EaQmd6xnoCwMsFizviOH WdvJ9sQMXjxH1lOhlRlHdK6z",
      "_links" : {
        "self" : {
          "href" : "http://localhost:8080/client/14"
        },
        "client" : {
          "href" : "http://localhost:8080/client/14"
        },
        "consultationSchedules" : {
          "href" : "http://localhost:8080/client/14/consultationSchedules"
        },
        "pets" : {
          "href" : "http://localhost:8080/client/14/pets"
        },
        "treatmentSchedules" : {
          "href" : "http://localhost:8080/client/14/treatmentSchedules"
        }
      }
    }, {
      "familyName" : "Bromont",
      "givenName" : "Adeline",
      "email" : "abromont43@amazonaws.com",
      "telephone" : "433-209-9990",
      "nif" : 818740366,
      "address" : "36358 Buell Terrace",
      "postalCode" : "2590-431",
      "other" : "h0zkxlqBHint05E7xpKU0sfrmX2I4dVpYLjfsr0Qy07AE0tRZRg8eQ9 76BkLluTLcrgBGKwTQ0cBozn",
      "_links" : {
        "self" : {
          "href" : "http://localhost:8080/client/15"
        },
        "client" : {
          "href" : "http://localhost:8080/client/15"
        },
        "consultationSchedules" : {
          "href" : "http://localhost:8080/client/15/consultationSchedules"
        },
        "pets" : {
          "href" : "http://localhost:8080/client/15/pets"
        },
        "treatmentSchedules" : {
          "href" : "http://localhost:8080/client/15/treatmentSchedules"
        }
      }
    }, {
      "familyName" : "Bussons",
      "givenName" : "Annalee",
      "email" : "abussons6x@barnesandnoble.com",
      "telephone" : "993-427-7908",
      "nif" : 464704630,
      "address" : "19 Northridge Alley",
      "postalCode" : null,
      "other" : "pOGsAtwjLg0T05eIyeu0w63plAArpMiG0goywtjg9wdOZq6P8uyVo9J EhColag407GmmtJ5naPXxiiz",
      "_links" : {
        "self" : {
          "href" : "http://localhost:8080/client/16"
        },
        "client" : {
          "href" : "http://localhost:8080/client/16"
        },
        "consultationSchedules" : {
          "href" : "http://localhost:8080/client/16/consultationSchedules"
        },
        "pets" : {
          "href" : "http://localhost:8080/client/16/pets"
        },
        "treatmentSchedules" : {
          "href" : "http://localhost:8080/client/16/treatmentSchedules"
        }
      }
    }, {
      "familyName" : "Carlaw",
      "givenName" : "Ashton",
      "email" : "acarlawcf@cisco.com",
      "telephone" : "610-273-7604",
      "nif" : 201660002,
      "address" : "3718 Carpenter Street",
      "postalCode" : "33-170",
      "other" : "o1FsAILm7SpwKefbvEN1RiRgg1X957mlHx1nWEH0TX2KkQYnVxNAB1B zUuS6q0skxW5nSiInl3Hh77a",
      "_links" : {
        "self" : {
          "href" : "http://localhost:8080/client/17"
        },
        "client" : {
          "href" : "http://localhost:8080/client/17"
        },
        "consultationSchedules" : {
          "href" : "http://localhost:8080/client/17/consultationSchedules"
        },
        "pets" : {
          "href" : "http://localhost:8080/client/17/pets"
        },
        "treatmentSchedules" : {
          "href" : "http://localhost:8080/client/17/treatmentSchedules"
        }
      }
    }, {
      "familyName" : "Carnall",
      "givenName" : "Alene",
      "email" : "acarnalloz@altervista.org",
      "telephone" : "675-857-0714",
      "nif" : 607286635,
      "address" : "757 Nevada Point",
      "postalCode" : "88-193",
      "other" : "C0yC5d5KxLezPGkAo3Vx8owzhcpaVNyZ9MkRz1Pd7SA8r9WDMYeuabC Cq4HlUwlhU7Nrn9kv25WjBft",
      "_links" : {
        "self" : {
          "href" : "http://localhost:8080/client/18"
        },
        "client" : {
          "href" : "http://localhost:8080/client/18"
        },
        "consultationSchedules" : {
          "href" : "http://localhost:8080/client/18/consultationSchedules"
        },
        "pets" : {
          "href" : "http://localhost:8080/client/18/pets"
        },
        "treatmentSchedules" : {
          "href" : "http://localhost:8080/client/18/treatmentSchedules"
        }
      }
    }, {
      "familyName" : "Chauvey",
      "givenName" : "Angy",
      "email" : "achauveyga@go.com",
      "telephone" : "294-901-6002",
      "nif" : 926222751,
      "address" : "338 Chinook Point",
      "postalCode" : null,
      "other" : "lV9uIRgVEJAxWNqcrskx2dIJedizKCOUjXfc0Zvi3ASFm9saJhY7YA2 fwzOrt42HAlR7L16P8Om1WLC",
      "_links" : {
        "self" : {
          "href" : "http://localhost:8080/client/19"
        },
        "client" : {
          "href" : "http://localhost:8080/client/19"
        },
        "consultationSchedules" : {
          "href" : "http://localhost:8080/client/19/consultationSchedules"
        },
        "pets" : {
          "href" : "http://localhost:8080/client/19/pets"
        },
        "treatmentSchedules" : {
          "href" : "http://localhost:8080/client/19/treatmentSchedules"
        }
      }
    }, {
      "familyName" : "Cherry",
      "givenName" : "Annissa",
      "email" : "acherryiv@tiny.cc",
      "telephone" : "235-113-5160",
      "nif" : 257959651,
      "address" : "78 Doe Crossing Place",
      "postalCode" : "14300",
      "other" : "1dk6JLjTeUyY6roOjo3kkDPTe7lVW79hrAUQQoShYqTBUf2Bz3OQOcW XLVSAZLk5iLv4zZapEgfOuLZ",
      "_links" : {
        "self" : {
          "href" : "http://localhost:8080/client/20"
        },
        "client" : {
          "href" : "http://localhost:8080/client/20"
        },
        "consultationSchedules" : {
          "href" : "http://localhost:8080/client/20/consultationSchedules"
        },
        "pets" : {
          "href" : "http://localhost:8080/client/20/pets"
        },
        "treatmentSchedules" : {
          "href" : "http://localhost:8080/client/20/treatmentSchedules"
        }
      }
    }, {
      "familyName" : "Coke",
      "givenName" : "Anatol",
      "email" : "acokecq@twitter.com",
      "telephone" : "113-303-2392",
      "nif" : 604364853,
      "address" : "51325 Mccormick Way",
      "postalCode" : null,
      "other" : "2DuxAOksEtmN90KFFPO0EcKdL355ZQY8UTQPyAl8A0lMlkQQuNP0uwR wF98r7y0ExkdXTU9qer5tSAW",
      "_links" : {
        "self" : {
          "href" : "http://localhost:8080/client/21"
        },
        "client" : {
          "href" : "http://localhost:8080/client/21"
        },
        "consultationSchedules" : {
          "href" : "http://localhost:8080/client/21/consultationSchedules"
        },
        "pets" : {
          "href" : "http://localhost:8080/client/21/pets"
        },
        "treatmentSchedules" : {
          "href" : "http://localhost:8080/client/21/treatmentSchedules"
        }
      }
    } ]
  },
  "_links" : {
    "first" : {
      "href" : "http://localhost:8080/client?page=0&size=20"
    },
    "self" : {
      "href" : "http://localhost:8080/client{?page,size,sort}",
      "templated" : true
    },
    "next" : {
      "href" : "http://localhost:8080/client?page=1&size=20"
    },
    "last" : {
      "href" : "http://localhost:8080/client?page=50&size=20"
    },
    "profile" : {
      "href" : "http://localhost:8080/profile/client"
    },
    "search" : {
      "href" : "http://localhost:8080/client/search"
    }
  },
  "page" : {
    "size" : 20,
    "totalElements" : 1001,
    "totalPages" : 51,
    "number" : 0
  }
}
